# vtk DataFile Version 2.0
NACA 0012 kıçı kesik
ASCII
DATASET POLYDATA
POINTS 140 float
1.000000	0.001260	0.0
0.992704	0.002274	0.0
0.979641	0.004079	0.0
0.964244	0.006169	0.0
0.947231	0.008434	0.0
0.929323	0.010765	0.0
0.910956	0.013101	0.0
0.892372	0.015420	0.0
0.873723	0.017700	0.0
0.855041	0.019931	0.0
0.836311	0.022119	0.0
0.817558	0.024266	0.0
0.798819	0.026366	0.0
0.780088	0.028414	0.0
0.761336	0.030413	0.0
0.742560	0.032370	0.0
0.723780	0.034284	0.0
0.705012	0.036149	0.0
0.686255	0.037964	0.0
0.667502	0.039728	0.0
0.648751	0.041440	0.0
0.630004	0.043098	0.0
0.611266	0.044701	0.0
0.592538	0.046245	0.0
0.573821	0.047728	0.0
0.555117	0.049149	0.0
0.536430	0.050503	0.0
0.517763	0.051786	0.0
0.499117	0.052996	0.0
0.480488	0.054127	0.0
0.461875	0.055178	0.0
0.443287	0.056144	0.0
0.424740	0.057019	0.0
0.406241	0.057796	0.0
0.387789	0.058466	0.0
0.369372	0.059023	0.0
0.350989	0.059462	0.0
0.332648	0.059779	0.0
0.314366	0.059965	0.0
0.296159	0.060009	0.0
0.278033	0.059903	0.0
0.259997	0.059634	0.0
0.242060	0.059191	0.0
0.224236	0.058562	0.0
0.206544	0.057733	0.0
0.189011	0.056692	0.0
0.171676	0.055421	0.0
0.154596	0.053909	0.0
0.137852	0.052138	0.0
0.121548	0.050098	0.0
0.105827	0.047785	0.0
0.090903	0.045220	0.0
0.077039	0.042449	0.0
0.064541	0.039548	0.0
0.053594	0.036612	0.0
0.044211	0.033717	0.0
0.036254	0.030913	0.0
0.029567	0.028218	0.0
0.023982	0.025653	0.0
0.019310	0.023217	0.0
0.015371	0.020871	0.0
0.012012	0.018579	0.0
0.009117	0.016316	0.0
0.006653	0.014058	0.0
0.004621	0.011797	0.0
0.003007	0.009544	0.0
0.001777	0.007318	0.0
0.000894	0.005155	0.0
0.000322	0.003059	0.0
0.000036	0.001014	0.0
0.000036	-0.001014	0.0
0.000322	-0.003059	0.0
0.000894	-0.005155	0.0
0.001777	-0.007318	0.0
0.003007	-0.009544	0.0
0.004621	-0.011797	0.0
0.006653	-0.014058	0.0
0.009117	-0.016316	0.0
0.012012	-0.018579	0.0
0.015371	-0.020871	0.0
0.019310	-0.023217	0.0
0.023982	-0.025653	0.0
0.029567	-0.028218	0.0
0.036254	-0.030913	0.0
0.044211	-0.033717	0.0
0.053594	-0.036612	0.0
0.064541	-0.039548	0.0
0.077039	-0.042449	0.0
0.090903	-0.045220	0.0
0.105827	-0.047784	0.0
0.121548	-0.050098	0.0
0.137852	-0.052138	0.0
0.154596	-0.053909	0.0
0.171676	-0.055421	0.0
0.189011	-0.056692	0.0
0.206544	-0.057733	0.0
0.224236	-0.058562	0.0
0.242060	-0.059191	0.0
0.259997	-0.059634	0.0
0.278033	-0.059903	0.0
0.296159	-0.060009	0.0
0.314366	-0.059965	0.0
0.332648	-0.059779	0.0
0.350989	-0.059462	0.0
0.369372	-0.059023	0.0
0.387789	-0.058466	0.0
0.406241	-0.057796	0.0
0.424740	-0.057019	0.0
0.443287	-0.056144	0.0
0.461875	-0.055178	0.0
0.480488	-0.054127	0.0
0.499117	-0.052996	0.0
0.517763	-0.051786	0.0
0.536430	-0.050503	0.0
0.555117	-0.049149	0.0
0.573821	-0.047728	0.0
0.592538	-0.046245	0.0
0.611266	-0.044701	0.0
0.630004	-0.043098	0.0
0.648751	-0.041440	0.0
0.667502	-0.039728	0.0
0.686255	-0.037964	0.0
0.705012	-0.036149	0.0
0.723780	-0.034284	0.0
0.742560	-0.032370	0.0
0.761336	-0.030413	0.0
0.780088	-0.028414	0.0
0.798819	-0.026366	0.0
0.817558	-0.024266	0.0
0.836311	-0.022119	0.0
0.855041	-0.019931	0.0
0.873723	-0.017700	0.0
0.892372	-0.015420	0.0
0.910956	-0.013101	0.0
0.929323	-0.010765	0.0
0.947231	-0.008434	0.0
0.964244	-0.006169	0.0
0.979641	-0.004079	0.0
0.992704	-0.002274	0.0
1.000000	-0.001260	0.0
POLYGONS 1 141
140 0	1	2	3	4	5	6	7	8	9	10	11	12	13	14	15	16	17	18	19	20	21	22	23	24	25	26	27	28	29	30	31	32	33	34	35	36	37	38	39	40	41	42	43	44	45	46	47	48	49	50	51	52	53	54	55	56	57	58	59	60	61	62	63	64	65	66	67	68	69	70	71	72	73	74	75	76	77	78	79	80	81	82	83	84	85	86	87	88	89	90	91	92	93	94	95	96	97	98	99	100	101	102	103	104	105	106	107	108	109	110	111	112	113	114	115	116	117	118	119	120	121	122	123	124	125	126	127	128	129	130	131	132	133	134	135	136	137	138	139
CELL_DATA 1
SCALARS TEMPERATURE float 1
LOOKUP_TABLE default
0.0
