# vtk DataFile Version 2.0
Tasan Geometri
ASCII
DATASET POLYDATA
POINTS 4 float
-1.0 1.0 0.0
5.0 1.0 0.0
5.0 3.0 0.0
-1.0 3.0 0.0
POLYGONS 1 5
4 0 1 2 3
CELL_DATA 1
SCALARS TEMPERATURE float 1
LOOKUP_TABLE default
1.0
